…
``` r
imgs <- filter(xdf, grepl("(png|gif|jpeg)$", http_protocol_content_type))

imgs
```

    ## # A tibble: 55 x 14
    ##                                     warc_record_id                  warc_content_type warc_type     ip_address
    ##                                              <chr>                              <chr>     <chr>          <chr>
    ##  1 <urn:uuid:248b06a8-1dd8-4f34-a7e3-7e0df27268e1> application/http; msgtype=response  response 207.241.229.39
    ##  2 <urn:uuid:7f4eb3e1-8887-488e-b22d-8667925d3e15> application/http; msgtype=response  response 207.241.229.39
    ##  3 <urn:uuid:7dc2f6b9-0f82-4e3c-9436-97a2f46874d9> application/http; msgtype=response  response 207.241.229.39
    ##  4 <urn:uuid:0a556a1b-a3b3-4ec0-82e5-7b54ed5293cb> application/http; msgtype=response  response 207.241.229.39
    ##  5 <urn:uuid:06c4c82e-1659-4265-9571-7483ba7bc802> application/http; msgtype=response  response 207.241.229.39
    ##  6 <urn:uuid:677c328e-214b-4c5f-8058-a386ba7e2997> application/http; msgtype=response  response 207.241.229.39
    ##  7 <urn:uuid:6ca0a72f-70c7-4af7-84c1-de56ec666419> application/http; msgtype=response  response 207.241.229.39
    ##  8 <urn:uuid:8e9b9946-259a-4440-a396-174081d59fe5> application/http; msgtype=response  response 207.241.229.39
    ##  9 <urn:uuid:847c6746-9c99-4de0-b29f-c1b7d3185685> application/http; msgtype=response  response 207.241.229.39
    ## 10 <urn:uuid:31efe1d8-f7d1-4b1e-9a1d-48d57270ec61> application/http; msgtype=response  response 207.241.229.39
    ## # ... with 45 more rows, and 10 more variables: content_length <chr>, payload_type <chr>, profile <chr>,
    ## #   target_uri <chr>, date <dttm>, http_status_code <dbl>, http_protocol_content_type <chr>, http_version <chr>,
    ## #   http_raw_headers <list>, payload <list>
…
